<?xml version="1.0" encoding="utf-8"?>
<COLLADA xmlns="http://www.collada.org/2005/11/COLLADASchema" version="1.4.1" xmlns:xsi="http://www.w3.org/2001/XMLSchema-instance">
  <asset>
    <contributor>
      <author>Blender User</author>
      <authoring_tool>Blender 2.92.0 commit date:2021-02-24, commit time:16:25, hash:02948a2cab44</authoring_tool>
    </contributor>
    <created>2021-03-12T11:30:40</created>
    <modified>2021-03-12T11:30:40</modified>
    <unit name="meter" meter="1"/>
    <up_axis>Z_UP</up_axis>
  </asset>
  <library_effects>
    <effect id="box_material-effect">
      <profile_COMMON>
        <newparam sid="box_texture_jpg-surface">
          <surface type="2D">
            <init_from>box_texture_jpg</init_from>
          </surface>
        </newparam>
        <newparam sid="box_texture_jpg-sampler">
          <sampler2D>
            <source>box_texture_jpg-surface</source>
          </sampler2D>
        </newparam>
        <technique sid="common">
          <lambert>
            <emission>
              <color sid="emission">0 0 0 1</color>
            </emission>
            <diffuse>
              <texture texture="box_texture_jpg-sampler" texcoord="box-mesh-map-0"/>
            </diffuse>
            <index_of_refraction>
              <float sid="ior">1.45</float>
            </index_of_refraction>
          </lambert>
        </technique>
      </profile_COMMON>
    </effect>
  </library_effects>
  <library_images>
    <image id="box_texture_jpg" name="box_texture_jpg">
      <init_from>box_texture.jpg</init_from>
    </image>
  </library_images>
  <library_materials>
    <material id="box_material-material" name="box_material">
      <instance_effect url="#box_material-effect"/>
    </material>
  </library_materials>
  <library_geometries>
    <geometry id="box-mesh" name="box">
      <mesh>
        <source id="box-mesh-positions">
          <float_array id="box-mesh-positions-array" count="72">-0.145712 -0.2151417 0.1750874 -0.145712 0.2151417 0.1750874 -0.145712 -0.2151417 -0.1750874 -0.145712 0.2151417 -0.1750874 0.145712 -0.2151417 0.1750874 0.145712 0.2151417 0.1750874 0.145712 -0.2151417 -0.1750874 0.145712 0.2151417 -0.1750874 0.01664143 0.2157649 -0.1440709 0.01664155 -0.2162779 -0.1164907 -0.01776742 0.2157649 -0.1440709 -0.01776731 -0.2162779 -0.1164907 0.01664149 -0.2159866 0.1757383 0.01664149 -0.2151573 0.1765667 -0.01776736 -0.2151573 0.1765667 -0.01776736 -0.2159866 0.1757383 -0.01776736 0.21566 0.1757383 -0.01776736 0.2148314 0.1765667 0.01664149 0.2148314 0.1765667 0.01664149 0.2156599 0.1757383 -0.009613037 -0.2164918 -0.1223088 0.01238662 -0.2152739 -0.1197573 0.01526933 0.2157987 -0.1575822 -1.74791e-5 0.215916 -0.1539732</float_array>
          <technique_common>
            <accessor source="#box-mesh-positions-array" count="24" stride="3">
              <param name="X" type="float"/>
              <param name="Y" type="float"/>
              <param name="Z" type="float"/>
            </accessor>
          </technique_common>
        </source>
        <source id="box-mesh-normals">
          <float_array id="box-mesh-normals-array" count="54">-1 0 0 0 0 -1 1 0 0 0 0 1 0 -1 0 0 1 1.46019e-7 0 1 3.27664e-4 0 -0.7067449 0.7074686 0 0.7070335 0.70718 0 -0.9999996 9.96991e-4 0 -0.9993249 0.03673923 0.008073687 0.999966 0.001679837 3.89755e-6 1 3.28121e-4 0 -0.7067449 0.7074686 2.45086e-6 0.7069643 0.7072493 0 -0.9999996 9.96964e-4 0.09740549 -0.9085965 -0.4061586 0 0.9998835 0.01526379</float_array>
          <technique_common>
            <accessor source="#box-mesh-normals-array" count="18" stride="3">
              <param name="X" type="float"/>
              <param name="Y" type="float"/>
              <param name="Z" type="float"/>
            </accessor>
          </technique_common>
        </source>
        <source id="box-mesh-map-0">
          <float_array id="box-mesh-map-0-array" count="156">0.2668105 0.3698321 0.01731157 0.05062973 0.2666313 0.05068588 0.7128351 0.1850003 0.2856228 0.3857511 0.2857531 0.1842833 0.2856228 0.3857511 0.7129566 0.7363523 0.2856423 0.7363098 0.7129566 0.7363523 0.2857727 0.9358366 0.2856423 0.7363098 0.2856228 0.3857511 0.004321396 0.7363119 0.003960192 0.3857658 0.7130843 0.7363523 0.994751 0.3856855 0.9947345 0.7363488 0.331554 0.9460448 0.3315541 0.9868165 0.6803991 0.9868164 0.04153198 0.9460448 0.04153198 0.9868164 0.3301345 0.9868165 0.6817724 0.9868164 0.6817724 0.9460449 0.6803991 0.9460448 0.3315541 0.9868165 0.331554 0.9460448 0.3301345 0.9460448 0.6817724 0.9460449 0.6817724 0.9868164 0.9291411 0.9868164 0.05284792 0.9856715 0.05284792 0.9449809 0.04596287 0.9546238 0.9351404 0.9460891 0.9510647 0.9477053 0.9468123 0.9657228 0.2668105 0.3698321 0.01700824 0.3697436 0.01731157 0.05062973 0.7128351 0.1850003 0.712973 0.385689 0.2856228 0.3857511 0.2856228 0.3857511 0.712973 0.385689 0.7129566 0.7363523 0.7129566 0.7363523 0.7128093 0.9367482 0.2857727 0.9358366 0.2856228 0.3857511 0.2856423 0.7363098 0.004321396 0.7363119 0.7130843 0.7363523 0.7129566 0.3857097 0.994751 0.3856855 0.331554 0.9460448 0.6803991 0.9868164 0.6803991 0.9460448 0.04153198 0.9460448 0.3301345 0.9868165 0.3301345 0.9460448 0.6817724 0.9868164 0.6803991 0.9460448 0.6803991 0.9868164 0.3315541 0.9868165 0.3301345 0.9460448 0.3301345 0.9868165 0.6817724 0.9460449 0.9291411 0.9868164 0.9291411 0.9460448 0.05284792 0.9856715 0.04596287 0.9546238 0.0487228 0.9807082 0.9351404 0.9460891 0.9468123 0.9657228 0.9351404 0.9866424</float_array>
          <technique_common>
            <accessor source="#box-mesh-map-0-array" count="78" stride="2">
              <param name="S" type="float"/>
              <param name="T" type="float"/>
            </accessor>
          </technique_common>
        </source>
        <vertices id="box-mesh-vertices">
          <input semantic="POSITION" source="#box-mesh-positions"/>
        </vertices>
        <triangles material="box_material-material" count="26">
          <input semantic="VERTEX" source="#box-mesh-vertices" offset="0"/>
          <input semantic="NORMAL" source="#box-mesh-normals" offset="1"/>
          <input semantic="TEXCOORD" source="#box-mesh-map-0" offset="2" set="0"/>
          <p>1 0 0 2 0 1 0 0 2 3 1 3 6 1 4 2 1 5 6 2 6 5 2 7 4 2 8 5 3 9 0 3 10 4 3 11 6 4 12 0 4 13 2 4 14 3 5 15 5 5 16 7 5 17 18 3 18 17 3 19 14 3 20 8 6 21 10 6 22 16 6 23 15 7 24 12 7 25 13 7 26 17 8 27 18 8 28 19 8 29 12 9 30 15 9 31 11 9 32 9 10 33 11 10 34 20 10 35 8 11 36 22 11 37 23 11 38 1 0 39 3 0 40 2 0 41 3 1 42 7 1 43 6 1 44 6 2 45 7 2 46 5 2 47 5 3 48 1 3 49 0 3 50 6 4 51 4 4 52 0 4 53 3 5 54 1 5 55 5 5 56 18 3 57 14 3 58 13 3 59 8 12 60 16 12 61 19 12 62 15 13 63 13 13 64 14 13 65 17 14 66 19 14 67 16 14 68 12 15 69 11 15 70 9 15 71 9 16 72 20 16 73 21 16 74 8 17 75 23 17 76 10 17 77</p>
        </triangles>
      </mesh>
    </geometry>
  </library_geometries>
  <library_visual_scenes>
    <visual_scene id="Scene" name="Scene">
      <node id="box" name="box" type="NODE">
        <matrix sid="transform">1 0 0 0 0 1 0 0 0 0 1 0 0 0 0 1</matrix>
        <instance_geometry url="#box-mesh" name="box">
          <bind_material>
            <technique_common>
              <instance_material symbol="box_material-material" target="#box_material-material">
                <bind_vertex_input semantic="box-mesh-map-0" input_semantic="TEXCOORD" input_set="0"/>
              </instance_material>
            </technique_common>
          </bind_material>
        </instance_geometry>
      </node>
    </visual_scene>
  </library_visual_scenes>
  <scene>
    <instance_visual_scene url="#Scene"/>
  </scene>
</COLLADA>