# Blender v2.91.0 OBJ File: ''
# www.blender.org
mtllib floor.mtl
o floor
v 6.000000 -6.000000 0.000000
v -7.000000 7.000000 0.000000
v -7.000000 -6.000000 0.000000
v -7.000000 7.000000 -0.467096
v 6.000000 -6.000000 -0.467096
v -7.000000 -6.000000 -0.467096
v 6.000000 7.000000 -0.467096
v 6.000000 7.000000 0.000000
vt -1.571249 2.792741
vt 2.646531 -1.425042
vt 2.646532 2.792739
vt 7.117381 2.792739
vt 2.899598 -1.425041
vt 7.117380 -1.425042
vt -1.571251 -2.028949
vt 2.646531 -1.877403
vt -1.571251 -1.877403
vt 2.646531 -1.716764
vt -1.571251 -1.868309
vt 2.646531 -1.868310
vt -1.571251 -1.707668
vt 2.646531 -1.556123
vt -1.571251 -1.556121
vt -1.571251 -2.189589
vt 2.646531 -2.038042
vt -1.571251 -2.038042
vt -1.571250 -1.425041
vt 2.899600 2.792740
vt 2.646531 -2.028950
vt -1.571251 -1.716762
vt 2.646531 -1.707669
vt 2.646531 -2.189590
vn 0.0000 0.0000 1.0000
vn 0.0000 0.0000 -1.0000
vn 0.0000 1.0000 0.0000
vn 0.0000 -1.0000 0.0000
vn 1.0000 0.0000 0.0000
vn -1.0000 0.0000 0.0000
g floor_floor_floor
usemtl floor
s off
f 1/1/1 2/2/1 3/3/1
f 4/4/2 5/5/2 6/6/2
f 7/7/3 2/8/3 8/9/3
f 6/10/4 1/11/4 3/12/4
f 5/13/5 8/14/5 1/15/5
f 4/16/6 3/17/6 2/18/6
f 1/1/1 8/19/1 2/2/1
f 4/4/2 7/20/2 5/5/2
f 7/7/3 4/21/3 2/8/3
f 6/10/4 5/22/4 1/11/4
f 5/13/5 7/23/5 8/14/5
f 4/16/6 6/24/6 3/17/6
